<?xml version="1.0" encoding="utf-8"?>
<!-- Generator: Adobe Illustrator 22.1.0, SVG Export Plug-In . SVG Version: 6.00 Build 0)  -->
<svg version="1.1" id="Layer_1" xmlns="http://www.w3.org/2000/svg" xmlns:xlink="http://www.w3.org/1999/xlink" x="0px" y="0px"
	 viewBox="0 0 136.7 136.7" style="enable-background:new 0 0 136.7 136.7;" xml:space="preserve">
<style type="text/css">
	.st0{fill:#FFFFFF;}
	.st1{fill:none;stroke:#FFFFFF;stroke-miterlimit:10;}
	.st2{opacity:0.5;fill:none;stroke:#FFFFFF;stroke-miterlimit:10;}
	.st3{opacity:0.3;fill:none;stroke:#FFFFFF;stroke-miterlimit:10;}
	.st4{fill:#793591;}
</style>
<path class="st0" d="M118.2,68.3c0,27.5-22.3,49.8-49.8,49.8c-27.5,0-49.8-22.3-49.8-49.8c0-27.5,22.3-49.8,49.8-49.8
	C95.9,18.5,118.2,40.8,118.2,68.3z"/>
<path class="st1" d="M123.7,68.3c0,30.6-24.8,55.3-55.3,55.3C37.8,123.7,13,98.9,13,68.3C13,37.8,37.8,13,68.3,13
	C98.9,13,123.7,37.8,123.7,68.3z"/>
<path class="st2" d="M129.7,68.3c0,33.9-27.5,61.3-61.3,61.3C34.5,129.7,7,102.2,7,68.3C7,34.5,34.5,7,68.3,7
	C102.2,7,129.7,34.5,129.7,68.3z"/>
<path class="st3" d="M136.2,68.3c0,37.5-30.4,67.8-67.8,67.8c-37.5,0-67.8-30.4-67.8-67.8c0-37.5,30.4-67.8,67.8-67.8
	C105.8,0.5,136.2,30.9,136.2,68.3z"/>
<polygon class="st4" points="87.8,68.3 74.3,76.1 60.8,83.9 60.8,68.3 60.8,52.7 74.3,60.5 "/>
</svg>
